module online-store-app-synapsis-2

go 1.21

require (
	github.com/go-playground/validator/v10 v10.20.0
	github.com/gofiber/fiber/v2 v2.52.4
	github.com/golang-jwt/jwt v3.2.2+incompatible
	github.com/google/uuid v1.5.0
	github.com/hashicorp/vault/api v1.13.0
	github.com/jackc/pgx/v5 v5.5.5
	github.com/joho/godotenv v1.5.1
	golang.org/x/crypto v0.19.0
)

require (
	github.com/andybalholm/brotli v1.0.5 // indirect
	github.com/cenkalti/backoff/v3 v3.0.0 // indirect
	github.com/gabriel-vasile/mimetype v1.4.3 // indirect
	github.com/go-jose/go-jose/v4 v4.0.1 // indirect
	github.com/go-playground/locales v0.14.1 // indirect
	github.com/go-playground/universal-translator v0.18.1 // indirect
	github.com/hashicorp/errwrap v1.1.0 // indirect
	github.com/hashicorp/go-cleanhttp v0.5.2 // indirect
	github.com/hashicorp/go-multierror v1.1.1 // indirect
	github.com/hashicorp/go-retryablehttp v0.6.6 // indirect
	github.com/hashicorp/go-rootcerts v1.0.2 // indirect
	github.com/hashicorp/go-secure-stdlib/parseutil v0.1.6 // indirect
	github.com/hashicorp/go-secure-stdlib/strutil v0.1.2 // indirect
	github.com/hashicorp/go-sockaddr v1.0.2 // indirect
	github.com/hashicorp/hcl v1.0.0 // indirect
	github.com/jackc/pgpassfile v1.0.0 // indirect
	github.com/jackc/pgservicefile v0.0.0-20221227161230-091c0ba34f0a // indirect
	github.com/jackc/puddle/v2 v2.2.1 // indirect
	github.com/klauspost/compress v1.17.0 // indirect
	github.com/leodido/go-urn v1.4.0 // indirect
	github.com/mattn/go-colorable v0.1.13 // indirect
	github.com/mattn/go-isatty v0.0.20 // indirect
	github.com/mattn/go-runewidth v0.0.15 // indirect
	github.com/mitchellh/go-homedir v1.1.0 // indirect
	github.com/mitchellh/mapstructure v1.5.0 // indirect
	github.com/rivo/uniseg v0.2.0 // indirect
	github.com/ryanuber/go-glob v1.0.0 // indirect
	github.com/valyala/bytebufferpool v1.0.0 // indirect
	github.com/valyala/fasthttp v1.51.0 // indirect
	github.com/valyala/tcplisten v1.0.0 // indirect
	golang.org/x/net v0.21.0 // indirect
	golang.org/x/sync v0.1.0 // indirect
	golang.org/x/sys v0.17.0 // indirect
	golang.org/x/text v0.14.0 // indirect
	golang.org/x/time v0.0.0-20200416051211-89c76fbcd5d1 // indirect
)
